Detected text input format
Tokenized and tagged 36725 tweets (534902 tokens) in 55.7 seconds: 658.9 tweets/sec, 9597.6 tokens/sec
/home/mahesh_t/ankit_work/repository/nlp-project/libraries/TweeboParser/scripts/AugumentBrownClusteringFeature46.py:67: UnicodeWarning: Unicode equal comparison failed to convert both arguments to Unicode - interpreting them as being unequal
  brown = brown_dict.get(cvlist[1].lower().strip(), 'OOV')
I0420 03:18:06.940723 24594 TurboParser.cpp:47] Running parser...
I0420 03:18:06.940868 24594 DependencyOptions.cpp:252] Arc factored parts enabled.
I0420 03:18:06.940877 24594 DependencyOptions.cpp:255] Consecutive sibling parts enabled.
I0420 03:18:06.940883 24594 DependencyOptions.cpp:258] Grandparent parts enabled.
I0420 03:18:06.940943 24594 TokenDictionary.cpp:65] Setting --form_case_sensitive=0
I0420 03:18:06.940954 24594 TokenDictionary.cpp:75] Setting --prefix_length=4
I0420 03:18:06.940960 24594 TokenDictionary.cpp:78] Setting --suffix_length=4
I0420 03:18:06.976743 24594 DependencyOptions.cpp:159] Setting --model_type=basic
I0420 03:18:06.976768 24594 DependencyOptions.cpp:162] Setting --large_feature_set=1
I0420 03:18:06.976774 24594 DependencyOptions.cpp:165] Setting --labeled=0
I0420 03:18:06.976783 24594 DependencyOptions.cpp:168] Setting --prune_labels=0
I0420 03:18:06.976789 24594 DependencyOptions.cpp:171] Setting --prune_distances=1
I0420 03:18:06.976794 24594 DependencyOptions.cpp:174] Setting --prune_basic=1
I0420 03:18:06.976799 24594 DependencyOptions.cpp:177] Setting --pruner_posterior_threshold=0.0001
I0420 03:18:06.976833 24594 DependencyOptions.cpp:181] Setting --pruner_max_heads=10
I0420 03:18:06.976842 24594 DependencyOptions.cpp:252] Arc factored parts enabled.
I0420 03:18:09.424494 24594 SparseLabeledParameterVector.h:277] Statistics for labeled parameter vector:
I0420 03:18:09.424542 24594 SparseLabeledParameterVector.h:278] Features with sparse labels: 0 Total: 0 Sparse labels: 0
I0420 03:18:09.424549 24594 Parameters.cpp:32] Squared norm of the weight vector = 2057.12
I0420 03:18:09.424571 24594 Parameters.cpp:33] Number of features = 6757994
I0420 03:18:11.553534 24594 SparseLabeledParameterVector.h:277] Statistics for labeled parameter vector:
I0420 03:18:11.553578 24594 SparseLabeledParameterVector.h:278] Features with sparse labels: 0 Total: 0 Sparse labels: 0
I0420 03:18:11.553585 24594 Parameters.cpp:32] Squared norm of the weight vector = 94.5392
I0420 03:18:11.553604 24594 Parameters.cpp:33] Number of features = 4840311
I0420 03:20:56.404331 24594 Pipe.cpp:431] Number of instances: 36725
I0420 03:20:56.404356 24594 Pipe.cpp:432] Time: 164850
I0420 03:20:56.871351 24594 TurboParser.cpp:124] Testing took 169.815 sec.
I0420 03:20:56.896193 24603 TurboParser.cpp:47] Running parser...
I0420 03:20:56.896311 24603 DependencyOptions.cpp:252] Arc factored parts enabled.
I0420 03:20:56.896319 24603 DependencyOptions.cpp:255] Consecutive sibling parts enabled.
I0420 03:20:56.896325 24603 DependencyOptions.cpp:258] Grandparent parts enabled.
I0420 03:20:56.896384 24603 TokenDictionary.cpp:65] Setting --form_case_sensitive=0
I0420 03:20:56.896396 24603 TokenDictionary.cpp:75] Setting --prefix_length=4
I0420 03:20:56.896404 24603 TokenDictionary.cpp:78] Setting --suffix_length=4
I0420 03:20:56.900953 24603 DependencyOptions.cpp:159] Setting --model_type=standard
I0420 03:20:56.900966 24603 DependencyOptions.cpp:162] Setting --large_feature_set=1
I0420 03:20:56.900972 24603 DependencyOptions.cpp:165] Setting --labeled=1
I0420 03:20:56.900979 24603 DependencyOptions.cpp:168] Setting --prune_labels=1
I0420 03:20:56.900984 24603 DependencyOptions.cpp:171] Setting --prune_distances=1
I0420 03:20:56.900988 24603 DependencyOptions.cpp:174] Setting --prune_basic=0
I0420 03:20:56.900995 24603 DependencyOptions.cpp:177] Setting --pruner_posterior_threshold=0.0001
I0420 03:20:56.901021 24603 DependencyOptions.cpp:181] Setting --pruner_max_heads=10
I0420 03:20:56.901034 24603 DependencyOptions.cpp:252] Arc factored parts enabled.
I0420 03:20:56.901041 24603 DependencyOptions.cpp:255] Consecutive sibling parts enabled.
I0420 03:20:56.901049 24603 DependencyOptions.cpp:258] Grandparent parts enabled.
I0420 03:20:57.863391 24603 SparseLabeledParameterVector.h:277] Statistics for labeled parameter vector:
I0420 03:20:57.863445 24603 SparseLabeledParameterVector.h:278] Features with sparse labels: 911706 Total: 911706 Sparse labels: 1139414
I0420 03:20:57.863451 24603 Parameters.cpp:32] Squared norm of the weight vector = 9.13751
I0420 03:20:57.863469 24603 Parameters.cpp:33] Number of features = 2446106
I0420 03:20:57.863476 24603 SparseLabeledParameterVector.h:277] Statistics for labeled parameter vector:
I0420 03:20:57.863481 24603 SparseLabeledParameterVector.h:278] Features with sparse labels: 0 Total: 0 Sparse labels: 0
I0420 03:20:57.863487 24603 Parameters.cpp:32] Squared norm of the weight vector = 0
I0420 03:20:57.863494 24603 Parameters.cpp:33] Number of features = 0
I0420 03:35:11.747422 24603 Pipe.cpp:431] Number of instances: 36725
I0420 03:35:11.747447 24603 Pipe.cpp:432] Time: 853883
I0420 03:35:11.948387 24603 TurboParser.cpp:124] Testing took 855.036 sec.
Detected text input format
Tokenized and tagged 110123 tweets (1685300 tokens) in 161.5 seconds: 681.9 tweets/sec, 10436.0 tokens/sec
I0420 03:41:46.135710 24936 TurboParser.cpp:47] Running parser...
I0420 03:41:46.135854 24936 DependencyOptions.cpp:252] Arc factored parts enabled.
I0420 03:41:46.135864 24936 DependencyOptions.cpp:255] Consecutive sibling parts enabled.
I0420 03:41:46.135871 24936 DependencyOptions.cpp:258] Grandparent parts enabled.
I0420 03:41:46.135929 24936 TokenDictionary.cpp:65] Setting --form_case_sensitive=0
I0420 03:41:46.135943 24936 TokenDictionary.cpp:75] Setting --prefix_length=4
I0420 03:41:46.135951 24936 TokenDictionary.cpp:78] Setting --suffix_length=4
I0420 03:41:46.170433 24936 DependencyOptions.cpp:159] Setting --model_type=basic
I0420 03:41:46.170456 24936 DependencyOptions.cpp:162] Setting --large_feature_set=1
I0420 03:41:46.170464 24936 DependencyOptions.cpp:165] Setting --labeled=0
I0420 03:41:46.170470 24936 DependencyOptions.cpp:168] Setting --prune_labels=0
I0420 03:41:46.170477 24936 DependencyOptions.cpp:171] Setting --prune_distances=1
I0420 03:41:46.170483 24936 DependencyOptions.cpp:174] Setting --prune_basic=1
I0420 03:41:46.170490 24936 DependencyOptions.cpp:177] Setting --pruner_posterior_threshold=0.0001
I0420 03:41:46.170523 24936 DependencyOptions.cpp:181] Setting --pruner_max_heads=10
I0420 03:41:46.170532 24936 DependencyOptions.cpp:252] Arc factored parts enabled.
I0420 03:41:48.558081 24936 SparseLabeledParameterVector.h:277] Statistics for labeled parameter vector:
I0420 03:41:48.558127 24936 SparseLabeledParameterVector.h:278] Features with sparse labels: 0 Total: 0 Sparse labels: 0
I0420 03:41:48.558135 24936 Parameters.cpp:32] Squared norm of the weight vector = 2057.12
I0420 03:41:48.558254 24936 Parameters.cpp:33] Number of features = 6757994
I0420 03:41:50.679512 24936 SparseLabeledParameterVector.h:277] Statistics for labeled parameter vector:
I0420 03:41:50.679554 24936 SparseLabeledParameterVector.h:278] Features with sparse labels: 0 Total: 0 Sparse labels: 0
I0420 03:41:50.679563 24936 Parameters.cpp:32] Squared norm of the weight vector = 94.5392
I0420 03:41:50.679584 24936 Parameters.cpp:33] Number of features = 4840311
I0420 03:51:12.446745 24936 Pipe.cpp:431] Number of instances: 110123
I0420 03:51:12.446785 24936 Pipe.cpp:432] Time: 561767
I0420 03:51:12.900151 24936 TurboParser.cpp:124] Testing took 566.652 sec.
I0420 03:51:12.924871 24960 TurboParser.cpp:47] Running parser...
I0420 03:51:12.924985 24960 DependencyOptions.cpp:252] Arc factored parts enabled.
I0420 03:51:12.924995 24960 DependencyOptions.cpp:255] Consecutive sibling parts enabled.
I0420 03:51:12.925003 24960 DependencyOptions.cpp:258] Grandparent parts enabled.
I0420 03:51:12.925062 24960 TokenDictionary.cpp:65] Setting --form_case_sensitive=0
I0420 03:51:12.925076 24960 TokenDictionary.cpp:75] Setting --prefix_length=4
I0420 03:51:12.925083 24960 TokenDictionary.cpp:78] Setting --suffix_length=4
I0420 03:51:12.929642 24960 DependencyOptions.cpp:159] Setting --model_type=standard
I0420 03:51:12.929657 24960 DependencyOptions.cpp:162] Setting --large_feature_set=1
I0420 03:51:12.929664 24960 DependencyOptions.cpp:165] Setting --labeled=1
I0420 03:51:12.929671 24960 DependencyOptions.cpp:168] Setting --prune_labels=1
I0420 03:51:12.929677 24960 DependencyOptions.cpp:171] Setting --prune_distances=1
I0420 03:51:12.929683 24960 DependencyOptions.cpp:174] Setting --prune_basic=0
I0420 03:51:12.929689 24960 DependencyOptions.cpp:177] Setting --pruner_posterior_threshold=0.0001
I0420 03:51:12.929718 24960 DependencyOptions.cpp:181] Setting --pruner_max_heads=10
I0420 03:51:12.929731 24960 DependencyOptions.cpp:252] Arc factored parts enabled.
I0420 03:51:12.929739 24960 DependencyOptions.cpp:255] Consecutive sibling parts enabled.
I0420 03:51:12.929745 24960 DependencyOptions.cpp:258] Grandparent parts enabled.
I0420 03:51:13.870915 24960 SparseLabeledParameterVector.h:277] Statistics for labeled parameter vector:
I0420 03:51:13.870965 24960 SparseLabeledParameterVector.h:278] Features with sparse labels: 911706 Total: 911706 Sparse labels: 1139414
I0420 03:51:13.870973 24960 Parameters.cpp:32] Squared norm of the weight vector = 9.13751
I0420 03:51:13.871335 24960 Parameters.cpp:33] Number of features = 2446106
I0420 03:51:13.871343 24960 SparseLabeledParameterVector.h:277] Statistics for labeled parameter vector:
I0420 03:51:13.871350 24960 SparseLabeledParameterVector.h:278] Features with sparse labels: 0 Total: 0 Sparse labels: 0
I0420 03:51:13.871356 24960 Parameters.cpp:32] Squared norm of the weight vector = 0
I0420 03:51:13.871392 24960 Parameters.cpp:33] Number of features = 0
I0420 04:38:59.769119 24960 Pipe.cpp:431] Number of instances: 110123
I0420 04:38:59.769147 24960 Pipe.cpp:432] Time: 2865897
I0420 04:38:59.969909 24960 TurboParser.cpp:124] Testing took 2867.03 sec.
Detected text input format
Tokenized and tagged 36725 tweets (534902 tokens) in 52.2 seconds: 703.9 tweets/sec, 10251.7 tokens/sec
/home/mahesh_t/ankit_work/repository/nlp-project/libraries/TweeboParser/scripts/AugumentBrownClusteringFeature46.py:67: UnicodeWarning: Unicode equal comparison failed to convert both arguments to Unicode - interpreting them as being unequal
  brown = brown_dict.get(cvlist[1].lower().strip(), 'OOV')
I0420 04:41:08.063571 25117 TurboParser.cpp:47] Running parser...
I0420 04:41:08.063712 25117 DependencyOptions.cpp:252] Arc factored parts enabled.
I0420 04:41:08.063724 25117 DependencyOptions.cpp:255] Consecutive sibling parts enabled.
I0420 04:41:08.063736 25117 DependencyOptions.cpp:258] Grandparent parts enabled.
I0420 04:41:08.063792 25117 TokenDictionary.cpp:65] Setting --form_case_sensitive=0
I0420 04:41:08.063807 25117 TokenDictionary.cpp:75] Setting --prefix_length=4
I0420 04:41:08.063813 25117 TokenDictionary.cpp:78] Setting --suffix_length=4
I0420 04:41:08.097587 25117 DependencyOptions.cpp:159] Setting --model_type=basic
I0420 04:41:08.097610 25117 DependencyOptions.cpp:162] Setting --large_feature_set=1
I0420 04:41:08.097617 25117 DependencyOptions.cpp:165] Setting --labeled=0
I0420 04:41:08.097625 25117 DependencyOptions.cpp:168] Setting --prune_labels=0
I0420 04:41:08.097630 25117 DependencyOptions.cpp:171] Setting --prune_distances=1
I0420 04:41:08.097637 25117 DependencyOptions.cpp:174] Setting --prune_basic=1
I0420 04:41:08.097643 25117 DependencyOptions.cpp:177] Setting --pruner_posterior_threshold=0.0001
I0420 04:41:08.097676 25117 DependencyOptions.cpp:181] Setting --pruner_max_heads=10
I0420 04:41:08.097686 25117 DependencyOptions.cpp:252] Arc factored parts enabled.
I0420 04:41:10.486001 25117 SparseLabeledParameterVector.h:277] Statistics for labeled parameter vector:
I0420 04:41:10.486042 25117 SparseLabeledParameterVector.h:278] Features with sparse labels: 0 Total: 0 Sparse labels: 0
I0420 04:41:10.486049 25117 Parameters.cpp:32] Squared norm of the weight vector = 2057.12
I0420 04:41:10.486068 25117 Parameters.cpp:33] Number of features = 6757994
I0420 04:41:12.604787 25117 SparseLabeledParameterVector.h:277] Statistics for labeled parameter vector:
I0420 04:41:12.604843 25117 SparseLabeledParameterVector.h:278] Features with sparse labels: 0 Total: 0 Sparse labels: 0
I0420 04:41:12.604851 25117 Parameters.cpp:32] Squared norm of the weight vector = 94.5392
I0420 04:41:12.604871 25117 Parameters.cpp:33] Number of features = 4840311
I0420 04:43:54.333463 25117 Pipe.cpp:431] Number of instances: 36725
I0420 04:43:54.333489 25117 Pipe.cpp:432] Time: 161728
I0420 04:43:54.782166 25117 TurboParser.cpp:124] Testing took 166.609 sec.
I0420 04:43:54.792492 25129 TurboParser.cpp:47] Running parser...
I0420 04:43:54.792604 25129 DependencyOptions.cpp:252] Arc factored parts enabled.
I0420 04:43:54.792615 25129 DependencyOptions.cpp:255] Consecutive sibling parts enabled.
I0420 04:43:54.792623 25129 DependencyOptions.cpp:258] Grandparent parts enabled.
I0420 04:43:54.792676 25129 TokenDictionary.cpp:65] Setting --form_case_sensitive=0
I0420 04:43:54.792690 25129 TokenDictionary.cpp:75] Setting --prefix_length=4
I0420 04:43:54.792697 25129 TokenDictionary.cpp:78] Setting --suffix_length=4
I0420 04:43:54.796985 25129 DependencyOptions.cpp:159] Setting --model_type=standard
I0420 04:43:54.796998 25129 DependencyOptions.cpp:162] Setting --large_feature_set=1
I0420 04:43:54.797005 25129 DependencyOptions.cpp:165] Setting --labeled=1
I0420 04:43:54.797013 25129 DependencyOptions.cpp:168] Setting --prune_labels=1
I0420 04:43:54.797019 25129 DependencyOptions.cpp:171] Setting --prune_distances=1
I0420 04:43:54.797025 25129 DependencyOptions.cpp:174] Setting --prune_basic=0
I0420 04:43:54.797032 25129 DependencyOptions.cpp:177] Setting --pruner_posterior_threshold=0.0001
I0420 04:43:54.797058 25129 DependencyOptions.cpp:181] Setting --pruner_max_heads=10
I0420 04:43:54.797072 25129 DependencyOptions.cpp:252] Arc factored parts enabled.
I0420 04:43:54.797080 25129 DependencyOptions.cpp:255] Consecutive sibling parts enabled.
I0420 04:43:54.797086 25129 DependencyOptions.cpp:258] Grandparent parts enabled.
I0420 04:43:55.722861 25129 SparseLabeledParameterVector.h:277] Statistics for labeled parameter vector:
I0420 04:43:55.722908 25129 SparseLabeledParameterVector.h:278] Features with sparse labels: 911706 Total: 911706 Sparse labels: 1139414
I0420 04:43:55.722915 25129 Parameters.cpp:32] Squared norm of the weight vector = 9.13751
I0420 04:43:55.722934 25129 Parameters.cpp:33] Number of features = 2446106
I0420 04:43:55.722942 25129 SparseLabeledParameterVector.h:277] Statistics for labeled parameter vector:
I0420 04:43:55.722949 25129 SparseLabeledParameterVector.h:278] Features with sparse labels: 0 Total: 0 Sparse labels: 0
I0420 04:43:55.722955 25129 Parameters.cpp:32] Squared norm of the weight vector = 0
I0420 04:43:55.722964 25129 Parameters.cpp:33] Number of features = 0
I0420 04:57:27.550642 25129 Pipe.cpp:431] Number of instances: 36725
I0420 04:57:27.550668 25129 Pipe.cpp:432] Time: 811827
I0420 04:57:27.751732 25129 TurboParser.cpp:124] Testing took 812.943 sec.
Detected text input format
Tokenized and tagged 36713 tweets (561349 tokens) in 55.1 seconds: 666.6 tweets/sec, 10193.0 tokens/sec
I0420 04:59:40.260867 25258 TurboParser.cpp:47] Running parser...
I0420 04:59:40.260984 25258 DependencyOptions.cpp:252] Arc factored parts enabled.
I0420 04:59:40.260995 25258 DependencyOptions.cpp:255] Consecutive sibling parts enabled.
I0420 04:59:40.261003 25258 DependencyOptions.cpp:258] Grandparent parts enabled.
I0420 04:59:40.261060 25258 TokenDictionary.cpp:65] Setting --form_case_sensitive=0
I0420 04:59:40.261075 25258 TokenDictionary.cpp:75] Setting --prefix_length=4
I0420 04:59:40.261082 25258 TokenDictionary.cpp:78] Setting --suffix_length=4
I0420 04:59:40.295289 25258 DependencyOptions.cpp:159] Setting --model_type=basic
I0420 04:59:40.295315 25258 DependencyOptions.cpp:162] Setting --large_feature_set=1
I0420 04:59:40.295322 25258 DependencyOptions.cpp:165] Setting --labeled=0
I0420 04:59:40.295328 25258 DependencyOptions.cpp:168] Setting --prune_labels=0
I0420 04:59:40.295336 25258 DependencyOptions.cpp:171] Setting --prune_distances=1
I0420 04:59:40.295353 25258 DependencyOptions.cpp:174] Setting --prune_basic=1
I0420 04:59:40.295359 25258 DependencyOptions.cpp:177] Setting --pruner_posterior_threshold=0.0001
I0420 04:59:40.295394 25258 DependencyOptions.cpp:181] Setting --pruner_max_heads=10
I0420 04:59:40.295403 25258 DependencyOptions.cpp:252] Arc factored parts enabled.
I0420 04:59:42.682521 25258 SparseLabeledParameterVector.h:277] Statistics for labeled parameter vector:
I0420 04:59:42.682564 25258 SparseLabeledParameterVector.h:278] Features with sparse labels: 0 Total: 0 Sparse labels: 0
I0420 04:59:42.682571 25258 Parameters.cpp:32] Squared norm of the weight vector = 2057.12
I0420 04:59:42.682590 25258 Parameters.cpp:33] Number of features = 6757994
I0420 04:59:44.794394 25258 SparseLabeledParameterVector.h:277] Statistics for labeled parameter vector:
I0420 04:59:44.794437 25258 SparseLabeledParameterVector.h:278] Features with sparse labels: 0 Total: 0 Sparse labels: 0
I0420 04:59:44.794445 25258 Parameters.cpp:32] Squared norm of the weight vector = 94.5392
I0420 04:59:44.794463 25258 Parameters.cpp:33] Number of features = 4840311
I0420 05:02:51.130930 25258 Pipe.cpp:431] Number of instances: 36713
I0420 05:02:51.130956 25258 Pipe.cpp:432] Time: 186336
I0420 05:02:51.580481 25258 TurboParser.cpp:124] Testing took 191.208 sec.
I0420 05:02:51.605963 25280 TurboParser.cpp:47] Running parser...
I0420 05:02:51.606076 25280 DependencyOptions.cpp:252] Arc factored parts enabled.
I0420 05:02:51.606086 25280 DependencyOptions.cpp:255] Consecutive sibling parts enabled.
I0420 05:02:51.606092 25280 DependencyOptions.cpp:258] Grandparent parts enabled.
I0420 05:02:51.606148 25280 TokenDictionary.cpp:65] Setting --form_case_sensitive=0
I0420 05:02:51.606161 25280 TokenDictionary.cpp:75] Setting --prefix_length=4
I0420 05:02:51.606169 25280 TokenDictionary.cpp:78] Setting --suffix_length=4
I0420 05:02:51.610479 25280 DependencyOptions.cpp:159] Setting --model_type=standard
I0420 05:02:51.610492 25280 DependencyOptions.cpp:162] Setting --large_feature_set=1
I0420 05:02:51.610501 25280 DependencyOptions.cpp:165] Setting --labeled=1
I0420 05:02:51.610507 25280 DependencyOptions.cpp:168] Setting --prune_labels=1
I0420 05:02:51.610513 25280 DependencyOptions.cpp:171] Setting --prune_distances=1
I0420 05:02:51.610520 25280 DependencyOptions.cpp:174] Setting --prune_basic=0
I0420 05:02:51.610527 25280 DependencyOptions.cpp:177] Setting --pruner_posterior_threshold=0.0001
I0420 05:02:51.610553 25280 DependencyOptions.cpp:181] Setting --pruner_max_heads=10
I0420 05:02:51.610569 25280 DependencyOptions.cpp:252] Arc factored parts enabled.
I0420 05:02:51.610575 25280 DependencyOptions.cpp:255] Consecutive sibling parts enabled.
I0420 05:02:51.610582 25280 DependencyOptions.cpp:258] Grandparent parts enabled.
I0420 05:02:52.541913 25280 SparseLabeledParameterVector.h:277] Statistics for labeled parameter vector:
I0420 05:02:52.541959 25280 SparseLabeledParameterVector.h:278] Features with sparse labels: 911706 Total: 911706 Sparse labels: 1139414
I0420 05:02:52.541966 25280 Parameters.cpp:32] Squared norm of the weight vector = 9.13751
I0420 05:02:52.541985 25280 Parameters.cpp:33] Number of features = 2446106
I0420 05:02:52.541993 25280 SparseLabeledParameterVector.h:277] Statistics for labeled parameter vector:
I0420 05:02:52.541999 25280 SparseLabeledParameterVector.h:278] Features with sparse labels: 0 Total: 0 Sparse labels: 0
I0420 05:02:52.542006 25280 Parameters.cpp:32] Squared norm of the weight vector = 0
I0420 05:02:52.542014 25280 Parameters.cpp:33] Number of features = 0
I0420 05:18:49.388595 25280 Pipe.cpp:431] Number of instances: 36713
I0420 05:18:49.388622 25280 Pipe.cpp:432] Time: 956846
I0420 05:18:49.588881 25280 TurboParser.cpp:124] Testing took 957.967 sec.
Detected text input format
Tokenized and tagged 4483 tweets (65798 tokens) in 7.8 seconds: 572.0 tweets/sec, 8395.8 tokens/sec
I0420 05:19:08.416805 25344 TurboParser.cpp:47] Running parser...
I0420 05:19:08.416918 25344 DependencyOptions.cpp:252] Arc factored parts enabled.
I0420 05:19:08.416936 25344 DependencyOptions.cpp:255] Consecutive sibling parts enabled.
I0420 05:19:08.416944 25344 DependencyOptions.cpp:258] Grandparent parts enabled.
I0420 05:19:08.416999 25344 TokenDictionary.cpp:65] Setting --form_case_sensitive=0
I0420 05:19:08.417012 25344 TokenDictionary.cpp:75] Setting --prefix_length=4
I0420 05:19:08.417019 25344 TokenDictionary.cpp:78] Setting --suffix_length=4
I0420 05:19:08.450989 25344 DependencyOptions.cpp:159] Setting --model_type=basic
I0420 05:19:08.451014 25344 DependencyOptions.cpp:162] Setting --large_feature_set=1
I0420 05:19:08.451020 25344 DependencyOptions.cpp:165] Setting --labeled=0
I0420 05:19:08.451026 25344 DependencyOptions.cpp:168] Setting --prune_labels=0
I0420 05:19:08.451032 25344 DependencyOptions.cpp:171] Setting --prune_distances=1
I0420 05:19:08.451038 25344 DependencyOptions.cpp:174] Setting --prune_basic=1
I0420 05:19:08.451045 25344 DependencyOptions.cpp:177] Setting --pruner_posterior_threshold=0.0001
I0420 05:19:08.451077 25344 DependencyOptions.cpp:181] Setting --pruner_max_heads=10
I0420 05:19:08.451086 25344 DependencyOptions.cpp:252] Arc factored parts enabled.
I0420 05:19:10.834950 25344 SparseLabeledParameterVector.h:277] Statistics for labeled parameter vector:
I0420 05:19:10.834992 25344 SparseLabeledParameterVector.h:278] Features with sparse labels: 0 Total: 0 Sparse labels: 0
I0420 05:19:10.835000 25344 Parameters.cpp:32] Squared norm of the weight vector = 2057.12
I0420 05:19:10.835021 25344 Parameters.cpp:33] Number of features = 6757994
I0420 05:19:12.963559 25344 SparseLabeledParameterVector.h:277] Statistics for labeled parameter vector:
I0420 05:19:12.963604 25344 SparseLabeledParameterVector.h:278] Features with sparse labels: 0 Total: 0 Sparse labels: 0
I0420 05:19:12.963611 25344 Parameters.cpp:32] Squared norm of the weight vector = 94.5392
I0420 05:19:12.963631 25344 Parameters.cpp:33] Number of features = 4840311
I0420 05:19:32.965437 25344 Pipe.cpp:431] Number of instances: 4483
I0420 05:19:32.965477 25344 Pipe.cpp:432] Time: 20001
I0420 05:19:33.414721 25344 TurboParser.cpp:124] Testing took 24.887 sec.
I0420 05:19:33.440980 25346 TurboParser.cpp:47] Running parser...
I0420 05:19:33.441098 25346 DependencyOptions.cpp:252] Arc factored parts enabled.
I0420 05:19:33.441108 25346 DependencyOptions.cpp:255] Consecutive sibling parts enabled.
I0420 05:19:33.441117 25346 DependencyOptions.cpp:258] Grandparent parts enabled.
I0420 05:19:33.441174 25346 TokenDictionary.cpp:65] Setting --form_case_sensitive=0
I0420 05:19:33.441187 25346 TokenDictionary.cpp:75] Setting --prefix_length=4
I0420 05:19:33.441195 25346 TokenDictionary.cpp:78] Setting --suffix_length=4
I0420 05:19:33.445524 25346 DependencyOptions.cpp:159] Setting --model_type=standard
I0420 05:19:33.445539 25346 DependencyOptions.cpp:162] Setting --large_feature_set=1
I0420 05:19:33.445551 25346 DependencyOptions.cpp:165] Setting --labeled=1
I0420 05:19:33.445559 25346 DependencyOptions.cpp:168] Setting --prune_labels=1
I0420 05:19:33.445565 25346 DependencyOptions.cpp:171] Setting --prune_distances=1
I0420 05:19:33.445572 25346 DependencyOptions.cpp:174] Setting --prune_basic=0
I0420 05:19:33.445579 25346 DependencyOptions.cpp:177] Setting --pruner_posterior_threshold=0.0001
I0420 05:19:33.445606 25346 DependencyOptions.cpp:181] Setting --pruner_max_heads=10
I0420 05:19:33.445621 25346 DependencyOptions.cpp:252] Arc factored parts enabled.
I0420 05:19:33.445628 25346 DependencyOptions.cpp:255] Consecutive sibling parts enabled.
I0420 05:19:33.445636 25346 DependencyOptions.cpp:258] Grandparent parts enabled.
I0420 05:19:34.375782 25346 SparseLabeledParameterVector.h:277] Statistics for labeled parameter vector:
I0420 05:19:34.375828 25346 SparseLabeledParameterVector.h:278] Features with sparse labels: 911706 Total: 911706 Sparse labels: 1139414
I0420 05:19:34.375836 25346 Parameters.cpp:32] Squared norm of the weight vector = 9.13751
I0420 05:19:34.375855 25346 Parameters.cpp:33] Number of features = 2446106
I0420 05:19:34.375864 25346 SparseLabeledParameterVector.h:277] Statistics for labeled parameter vector:
I0420 05:19:34.375888 25346 SparseLabeledParameterVector.h:278] Features with sparse labels: 0 Total: 0 Sparse labels: 0
I0420 05:19:34.375895 25346 Parameters.cpp:32] Squared norm of the weight vector = 0
I0420 05:19:34.375903 25346 Parameters.cpp:33] Number of features = 0
I0420 05:21:18.547025 25346 Pipe.cpp:431] Number of instances: 4483
I0420 05:21:18.547052 25346 Pipe.cpp:432] Time: 104170
I0420 05:21:18.752066 25346 TurboParser.cpp:124] Testing took 105.295 sec.
Detected text input format
Tokenized and tagged 67792 tweets (1051120 tokens) in 102.2 seconds: 663.1 tweets/sec, 10281.6 tokens/sec
I0420 05:25:23.661633 25390 TurboParser.cpp:47] Running parser...
I0420 05:25:23.661756 25390 DependencyOptions.cpp:252] Arc factored parts enabled.
I0420 05:25:23.661767 25390 DependencyOptions.cpp:255] Consecutive sibling parts enabled.
I0420 05:25:23.661775 25390 DependencyOptions.cpp:258] Grandparent parts enabled.
I0420 05:25:23.661839 25390 TokenDictionary.cpp:65] Setting --form_case_sensitive=0
I0420 05:25:23.661851 25390 TokenDictionary.cpp:75] Setting --prefix_length=4
I0420 05:25:23.661859 25390 TokenDictionary.cpp:78] Setting --suffix_length=4
I0420 05:25:23.696403 25390 DependencyOptions.cpp:159] Setting --model_type=basic
I0420 05:25:23.696424 25390 DependencyOptions.cpp:162] Setting --large_feature_set=1
I0420 05:25:23.696431 25390 DependencyOptions.cpp:165] Setting --labeled=0
I0420 05:25:23.696439 25390 DependencyOptions.cpp:168] Setting --prune_labels=0
I0420 05:25:23.696445 25390 DependencyOptions.cpp:171] Setting --prune_distances=1
I0420 05:25:23.696452 25390 DependencyOptions.cpp:174] Setting --prune_basic=1
I0420 05:25:23.696458 25390 DependencyOptions.cpp:177] Setting --pruner_posterior_threshold=0.0001
I0420 05:25:23.696491 25390 DependencyOptions.cpp:181] Setting --pruner_max_heads=10
I0420 05:25:23.696501 25390 DependencyOptions.cpp:252] Arc factored parts enabled.
I0420 05:25:26.215972 25390 SparseLabeledParameterVector.h:277] Statistics for labeled parameter vector:
I0420 05:25:26.216019 25390 SparseLabeledParameterVector.h:278] Features with sparse labels: 0 Total: 0 Sparse labels: 0
I0420 05:25:26.216027 25390 Parameters.cpp:32] Squared norm of the weight vector = 2057.12
I0420 05:25:26.216049 25390 Parameters.cpp:33] Number of features = 6757994
I0420 05:25:28.464020 25390 SparseLabeledParameterVector.h:277] Statistics for labeled parameter vector:
I0420 05:25:28.464073 25390 SparseLabeledParameterVector.h:278] Features with sparse labels: 0 Total: 0 Sparse labels: 0
I0420 05:25:28.464082 25390 Parameters.cpp:32] Squared norm of the weight vector = 94.5392
I0420 05:25:28.464103 25390 Parameters.cpp:33] Number of features = 4840311
I0420 05:31:55.673791 25390 Pipe.cpp:431] Number of instances: 67792
I0420 05:31:55.673821 25390 Pipe.cpp:432] Time: 387209
I0420 05:31:56.151998 25390 TurboParser.cpp:124] Testing took 392.364 sec.
I0420 05:31:56.181570 25405 TurboParser.cpp:47] Running parser...
I0420 05:31:56.181685 25405 DependencyOptions.cpp:252] Arc factored parts enabled.
I0420 05:31:56.181696 25405 DependencyOptions.cpp:255] Consecutive sibling parts enabled.
I0420 05:31:56.181704 25405 DependencyOptions.cpp:258] Grandparent parts enabled.
I0420 05:31:56.181768 25405 TokenDictionary.cpp:65] Setting --form_case_sensitive=0
I0420 05:31:56.181783 25405 TokenDictionary.cpp:75] Setting --prefix_length=4
I0420 05:31:56.181792 25405 TokenDictionary.cpp:78] Setting --suffix_length=4
I0420 05:31:56.186157 25405 DependencyOptions.cpp:159] Setting --model_type=standard
I0420 05:31:56.186172 25405 DependencyOptions.cpp:162] Setting --large_feature_set=1
I0420 05:31:56.186179 25405 DependencyOptions.cpp:165] Setting --labeled=1
I0420 05:31:56.186185 25405 DependencyOptions.cpp:168] Setting --prune_labels=1
I0420 05:31:56.186192 25405 DependencyOptions.cpp:171] Setting --prune_distances=1
I0420 05:31:56.186198 25405 DependencyOptions.cpp:174] Setting --prune_basic=0
I0420 05:31:56.186205 25405 DependencyOptions.cpp:177] Setting --pruner_posterior_threshold=0.0001
I0420 05:31:56.186256 25405 DependencyOptions.cpp:181] Setting --pruner_max_heads=10
I0420 05:31:56.186271 25405 DependencyOptions.cpp:252] Arc factored parts enabled.
I0420 05:31:56.186278 25405 DependencyOptions.cpp:255] Consecutive sibling parts enabled.
I0420 05:31:56.186285 25405 DependencyOptions.cpp:258] Grandparent parts enabled.
I0420 05:31:57.140990 25405 SparseLabeledParameterVector.h:277] Statistics for labeled parameter vector:
I0420 05:31:57.141052 25405 SparseLabeledParameterVector.h:278] Features with sparse labels: 911706 Total: 911706 Sparse labels: 1139414
I0420 05:31:57.141059 25405 Parameters.cpp:32] Squared norm of the weight vector = 9.13751
I0420 05:31:57.141077 25405 Parameters.cpp:33] Number of features = 2446106
I0420 05:31:57.141086 25405 SparseLabeledParameterVector.h:277] Statistics for labeled parameter vector:
I0420 05:31:57.141093 25405 SparseLabeledParameterVector.h:278] Features with sparse labels: 0 Total: 0 Sparse labels: 0
I0420 05:31:57.141098 25405 Parameters.cpp:32] Squared norm of the weight vector = 0
I0420 05:31:57.141105 25405 Parameters.cpp:33] Number of features = 0
I0420 06:02:32.992120 25405 Pipe.cpp:431] Number of instances: 67792
I0420 06:02:32.992149 25405 Pipe.cpp:432] Time: 1835850
I0420 06:02:33.196713 25405 TurboParser.cpp:124] Testing took 1837 sec.
